…
Gwynnda_trash_df= 
  read_excel("hw2data/202509 Trash Wheel Collection Data.xlsx",sheet = "Gwynns Falls Trash Wheel",skip=1, na=c("NA",".",""))|>
  janitor::clean_names()|>
  mutate(name="Gwynnda")|>
  mutate(year = as.integer(year))

trash_wheel=
  bind_rows(Mr_trash_df,Professor_trash_df,Gwynnda_trash_df)
trash_wheel
```

    ## # A tibble: 1,191 × 15
    ##    dumpster month  year date                weight_tons volume_cubic_yards
    ##       <dbl> <chr> <int> <dttm>                    <dbl>              <dbl>
    ##  1        1 May    2014 2014-05-16 00:00:00        4.31                 18
    ##  2        2 May    2014 2014-05-16 00:00:00        2.74                 13
    ##  3        3 May    2014 2014-05-16 00:00:00        3.45                 15
    ##  4        4 May    2014 2014-05-17 00:00:00        3.1                  15
    ##  5        5 May    2014 2014-05-17 00:00:00        4.06                 18
    ##  6        6 May    2014 2014-05-20 00:00:00        2.71                 13
    ##  7        7 May    2014 2014-05-21 00:00:00        1.91                  8
    ##  8        8 May    2014 2014-05-28 00:00:00        3.7                  16
    ##  9        9 June   2014 2014-06-05 00:00:00        2.52                 14
    ## 10       10 June   2014 2014-06-11 00:00:00        3.76                 18
    ## # ℹ 1,181 more rows
    ## # ℹ 9 more variables: plastic_bottles <dbl>, polystyrene <dbl>,
    ## #   cigarette_butts <dbl>, glass_bottles <dbl>, plastic_bags <dbl>,
    ## #   wrappers <dbl>, sports_balls <int>, homes_powered <dbl>, name <chr>
…
``` r
zip_df=
  left_join(zip_code_df,zip_zori_df,by=c("zip_code"))|>
  relocate(zip_code)
missing_zip=anti_join(zip_code_df,zip_zori_df,c="zip_code")
```

    ## Joining with `by = join_by(zip_code)`

``` r
zip_df
```

    ## # A tibble: 322 × 123
    ##    zip_code county county_code county_fips neighborhood      region_id size_rank
    ##       <dbl> <chr>  <chr>             <dbl> <chr>                 <dbl>     <dbl>
    ##  1    10451 Bronx  005               36005 High Bridge and …     61791       838
    ##  2    10452 Bronx  005               36005 High Bridge and …     61792       112
    ##  3    10453 Bronx  005               36005 Central Bronx         61793        84
    ##  4    10454 Bronx  005               36005 Hunts Point and …     61794      2018
    ##  5    10455 Bronx  005               36005 Hunts Point and …     61795      1733
    ##  6    10456 Bronx  005               36005 High Bridge and …     61796        49
    ##  7    10457 Bronx  005               36005 Central Bronx         61797       107
    ##  8    10458 Bronx  005               36005 Bronx Park and F…     61798        63
    ##  9    10459 Bronx  005               36005 Hunts Point and …     61799       914
    ## 10    10460 Bronx  005               36005 Central Bronx         61800       462
    ## # ℹ 312 more rows
    ## # ℹ 116 more variables: x2015_01_31 <dbl>, x2015_02_28 <dbl>,
    ## #   x2015_03_31 <dbl>, x2015_04_30 <dbl>, x2015_05_31 <dbl>, x2015_06_30 <dbl>,
    ## #   x2015_07_31 <dbl>, x2015_08_31 <dbl>, x2015_09_30 <dbl>, x2015_10_31 <dbl>,
    ## #   x2015_11_30 <dbl>, x2015_12_31 <dbl>, x2016_01_31 <dbl>, x2016_02_29 <dbl>,
    ## #   x2016_03_31 <dbl>, x2016_04_30 <dbl>, x2016_05_31 <dbl>, x2016_06_30 <dbl>,
    ## #   x2016_07_31 <dbl>, x2016_08_31 <dbl>, x2016_09_30 <dbl>, …
…
  )
zip_tidy2=drop_na(zip_tidy,zori)
zip_202101=filter(zip_tidy2,time==("x2021_01_31"))
zip_202001=filter(zip_tidy2,time==("x2020_01_31"))
zip_20212020=
  bind_rows(zip_202001,zip_202101)|>
  relocate(zip_code,county_code, time)|>
  pivot_wider(
    names_from = "time",
    values_from = "zori"
  )
zip_20212020
```

    ## # A tibble: 97 × 9
    ##    zip_code county_code county county_fips neighborhood      region_id size_rank
    ##       <dbl> <chr>       <chr>        <dbl> <chr>                 <dbl>     <dbl>
    ##  1    10457 005         Bronx        36005 Central Bronx         61797       107
    ##  2    10458 005         Bronx        36005 Bronx Park and F…     61798        63
    ##  3    10461 005         Bronx        36005 Southeast Bronx       61801       894
    ##  4    10462 005         Bronx        36005 Southeast Bronx       61802       128
    ##  5    10463 005         Bronx        36005 Kingsbridge and …     61803       183
    ##  6    10467 005         Bronx        36005 Bronx Park and F…     61807        17
    ##  7    11201 047         Kings        36047 Northwest Brookl…     62012       222
    ##  8    11205 047         Kings        36047 Northwest Brookl…     62016      1025
    ##  9    11206 047         Kings        36047 Bushwick and Wil…     62017        47
    ## 10    11207 047         Kings        36047 East New York an…     62018        20
    ## # ℹ 87 more rows
    ## # ℹ 2 more variables: x2020_01_31 <dbl>, x2021_01_31 <dbl>
…
